# AQHI returns expected output

    Code
      AQHI(dates = obs$date, pm25_1hr_ugm3 = obs$pm25, o3_1hr_ppb = obs$o3,
      no2_1hr_ppb = obs$no2, verbose = FALSE)
    Output
      # A tibble: 24 x 13
         date                 pm25    o3   no2 pm25_rolling_3hr no2_rolling_3hr
         <dttm>              <int> <int> <int>            <dbl>           <dbl>
       1 2024-01-01 00:00:00    91    12     2             NA              NA  
       2 2024-01-01 01:00:00    27   115   108             NA              NA  
       3 2024-01-01 02:00:00    51   139    95             56.3            68.3
       4 2024-01-01 03:00:00    59    71   102             45.7           102. 
       5 2024-01-01 04:00:00   103    89   145             71             114  
       6 2024-01-01 05:00:00    61   112    94             74.3           114. 
       7 2024-01-01 06:00:00   135   117   143             99.7           127. 
       8 2024-01-01 07:00:00     1    32    83             65.7           107. 
       9 2024-01-01 08:00:00   120   125    79             85.3           102. 
      10 2024-01-01 09:00:00    49    27    25             56.7            62.3
      # i 14 more rows
      # i 7 more variables: o3_rolling_3hr <dbl>, AQHI <int>, AQHI_plus <fct>,
      #   risk <int>, high_risk_pop_message <chr>, general_pop_message <chr>,
      #   AQHI_plus_exceeds_AQHI <lgl>
…
