# expected data returned

    Code
      obs
    Output
      # A tibble: 25 x 8
         date_utc            date_local     site_id site_name quality_assured pm25_1hr
         <dttm>              <chr>          <chr>   <chr>     <lgl>            [ug/m3]
       1 2019-02-01 00:00:00 2019-01-31 16~ 000106~ Vanderho~ FALSE                2.8
       2 2019-02-01 01:00:00 2019-01-31 17~ 000106~ Vanderho~ FALSE                5  
       3 2019-02-01 02:00:00 2019-01-31 18~ 000106~ Vanderho~ FALSE                7  
       4 2019-02-01 03:00:00 2019-01-31 19~ 000106~ Vanderho~ FALSE                7.2
       5 2019-02-01 04:00:00 2019-01-31 20~ 000106~ Vanderho~ FALSE                3.8
       6 2019-02-01 05:00:00 2019-01-31 21~ 000106~ Vanderho~ FALSE                3.3
       7 2019-02-01 06:00:00 2019-01-31 22~ 000106~ Vanderho~ FALSE                2.6
       8 2019-02-01 07:00:00 2019-01-31 23~ 000106~ Vanderho~ FALSE                2.3
       9 2019-02-01 08:00:00 2019-02-01 00~ 000106~ Vanderho~ FALSE                1.6
      10 2019-02-01 09:00:00 2019-02-01 01~ 000106~ Vanderho~ FALSE                1.4
      # i 15 more rows
      # i 2 more variables: source <chr>, network <chr>
