Download air quality station observations from the US EPA "AirNow" platform — get_airnow_data • airquality
…
    Examples

# \donttest{
# Get data for all stations for first 3 hours (UTC) of Jan 2019
get_airnow_data("all", c("2019-01-01 01:00:00", "2019-01-01 03:00:00"))
#> Data from the 'AirNow' repository are collected from the US Environmental Protection Agency and are NOT to be used commercially. Recent observations are not quality assured, and are intended for research and/or situational awareness (**NOT for regulatory decision making**). See `https://www.airnow.gov` for more information.
#> 2025-11-13 22:49:40: Getting hourly files
#> 2025-11-13 22:49:42: Getting station metadata
#> Warning: There was 1 warning in `dplyr::mutate()`.
#> ℹ In argument: `date_local = format(...)`.
#> ℹ In group 36: `tz_local = NA`.
#> Caused by warning in `with_tz.default()`:
#> ! Unrecognized time zone 'NA'
#> # A tibble: 10,129 × 22
#>    date_utc            date_local      site_id quality_assured pm25_1hr pm10_1hr
#>    <dttm>              <chr>           <chr>   <lgl>           [ug/m^3] [ug/m^3]
#>  1 2019-01-01 01:00:00 2018-12-31 21:… 000010… FALSE                 NA       NA
#>  2 2019-01-01 02:00:00 2018-12-31 22:… 000010… FALSE                 NA       NA
#>  3 2019-01-01 03:00:00 2018-12-31 23:… 000010… FALSE                 NA       NA
#>  4 2019-01-01 01:00:00 2018-12-31 21:… 000010… FALSE                  9       NA
#>  5 2019-01-01 02:00:00 2018-12-31 22:… 000010… FALSE                  9       NA
#>  6 2019-01-01 03:00:00 2018-12-31 23:… 000010… FALSE                  7       NA
#>  7 2019-01-01 01:00:00 2018-12-31 21:… 000010… FALSE                 NA       NA
#>  8 2019-01-01 02:00:00 2018-12-31 22:… 000010… FALSE                 NA       NA
#>  9 2019-01-01 03:00:00 2018-12-31 23:… 000010… FALSE                 NA       NA
#> 10 2019-01-01 01:00:00 2018-12-31 21:… 000010… FALSE                 NA       NA
#> # ℹ 10,119 more rows
#> # ℹ 16 more variables: bc_1hr [ug/m^3], o3_1hr [ppb], no_1hr [ppb],
#> #   no2_1hr [ppb], no2y_1hr [ppb], nox_1hr [ppb], noy_1hr [ppb], so2_1hr [ppb],
#> #   co_1hr [ppb], rh_1hr [%], temp_1hr [°C], wd_1hr [°], ws_1hr [m/s],
#> #   precip_1hr [mm], pressure_1hr [kPa], solar_1hr [W/m^2]
…
