Download air quality station metadata from the US EPA "AirNow" platform — get_airnow_stations • airquality
…
Other Data Collection:
get_abgov_data(),
get_abgov_stations(),
get_airnow_data(),
get_bcgov_data(),
get_bcgov_stations(),
purpleair_api()

    Examples

# \donttest{
# Normal usage
get_airnow_stations()
#> # A tibble: 5,130 × 11
#>    site_id    site_name city    lat    lng  elev status operator tz_offset as_of
#>    <chr>      <chr>     <chr> <dbl>  <dbl> <dbl> <chr>  <chr>        <dbl> <chr>
#>  1 120860031  Coral Re… MIAM…  25.6  -80.3   0   Inact… Florida…        -5 2025…
#>  2 120860027  Rosensti… MIAM…  25.7  -80.2   0.6 Active Florida…        -5 2025…
#>  3 80039NE01  San Nico… NUEV…  25.7 -100.  152.  Active Sistema…        -6 2025…
#>  4 840120115… Coconut … BROW…  26.3  -80.2   0   Active Broward…        -5 2025…
#>  5 120990021  Lantana … PALM…  26.6  -80.1   8.8 Active Florida…        -5 2025…
#>  6 120710005  Winkler … LEE    26.6  -81.9   0   Active Florida…        -5 2025…
#>  7 121151006  Paw Park  SARA…  27.4  -82.5   0   Active Florida…        -5 2025…
#>  8 482730314  Corpus C… KLEB…  27.4  -97.3 390.  Active Texas C…        -6 2025…
#>  9 042202160  JPN Site… NA     33.1  130.    0   Active Japan M…         9 2025…
#> 10 011250004  TUSC PM   TUSC…  33.2  -87.5 133   Inact… Alabama…        -6 2025…
#> # ℹ 5,120 more rows
#> # ℹ 1 more variable: tz_local <chr>
# if spatial object required
get_airnow_stations(use_sf = TRUE)
#> Simple feature collection with 5130 features and 9 fields
#> Geometry type: POINT
#> Dimension:     XY
#> Bounding box:  xmin: -161.767 ymin: -34.5766 xmax: 144.36 ymax: 70.1319
#> Geodetic CRS:  WGS 84
#> # A tibble: 5,130 × 10
#>    site_id      site_name   city   elev status operator tz_offset as_of tz_local
#>  * <chr>        <chr>       <chr> <dbl> <chr>  <chr>        <dbl> <chr> <chr>   
#>  1 120860031    Coral Reef  MIAM…   0   Inact… Florida…        -5 2025… America…
#>  2 120860027    Rosenstiel  MIAM…   0.6 Active Florida…        -5 2025… America…
#>  3 80039NE01    San Nicolas NUEV… 152.  Active Sistema…        -6 2025… America…
#>  4 840120115005 Coconut Cr… BROW…   0   Active Broward…        -5 2025… America…
#>  5 120990021    Lantana Pr… PALM…   8.8 Active Florida…        -5 2025… America…
#>  6 120710005    Winkler Pu… LEE     0   Active Florida…        -5 2025… America…
#>  7 121151006    Paw Park    SARA…   0   Active Florida…        -5 2025… America…
#>  8 482730314    Corpus Chr… KLEB… 390.  Active Texas C…        -6 2025… America…
#>  9 042202160    JPN Site 0… NA      0   Active Japan M…         9 2025… Asia/To…
#> 10 011250004    TUSC PM     TUSC… 133   Inact… Alabama…        -6 2025… America…
#> # ℹ 5,120 more rows
#> # ℹ 1 more variable: geometry <POINT [°]>
# if data for some time in the past required
get_airnow_stations(date_range = lubridate::ymd("2022-01-01"))
#> # A tibble: 4,746 × 11
#>    site_id   site_name   city    lat   lng  elev status operator tz_offset as_of
#>    <chr>     <chr>       <chr> <dbl> <dbl> <dbl> <chr>  <chr>        <dbl> <chr>
#>  1 017203140 JPN Site 0… NA     36.4  136.     0 Active Japan M…         9 2022…
#>  2 019321030 JPN Site 0… NA     35.6  139.     0 Active Japan M…         9 2022…
#>  3 020204510 JPN Site 0… NA     36.1  138.     0 Active Japan M…         9 2022…
#>  4 022202150 JPN Site 0… NA     34.7  138.     0 Active Japan M…         9 2022…
#>  5 022447010 JPN Site 0… NA     34.7  138.     0 Active Japan M…         9 2022…
#>  6 028202530 JPN Site 0… NA     34.8  135.     0 Active Japan M…         9 2022…
#>  7 028214510 JPN Site 0… NA     34.8  135.     0 Active Japan M…         9 2022…
#>  8 030205020 JPN Site 0… NA     33.9  135.     0 Active Japan M…         9 2022…
#>  9 033202070 JPN Site 0… NA     34.5  134.     0 Active Japan M…         9 2022…
#> 10 035205030 JPN Site 0… NA     34.0  132.     0 Active Japan M…         9 2022…
#> # ℹ 4,736 more rows
#> # ℹ 1 more variable: tz_local <chr>
# Or a range of time
get_airnow_stations(date_range = lubridate::ymd(c("2022-01-01","2022-01-05")))
#> # A tibble: 4,751 × 11
#>    site_id    site_name city    lat    lng  elev status operator tz_offset as_of
#>    <chr>      <chr>     <chr> <dbl>  <dbl> <dbl> <chr>  <chr>        <dbl> <chr>
#>  1 80011G002  Estación… GUAN…  20.5 -101.   477. Active Secreta…        -6 2022…
#>  2 800140009  Loma Dor… JALI…  20.6 -103.   502. Active Sistema…        -6 2022…
#>  3 80011G018  Estación… GUAN…  21.0 -101.   610  Active Secreta…        -6 2022…
#>  4 150031001  Honolulu  HONO…  21.3 -158.     0  Active Hawaii …       -10 2022…
#>  5 682RIY010… Riyadh    NA     24.7   46.6    0  Active U.S. De…         3 2022…
#>  6 484391062  Kennedal… TARR…  32.7  -97.2  195. Active Texas C…         0 2022…
#>  7 482030002  Karnack … HARR…  32.7  -94.2    0  Active Texas C…        -6 2022…
#>  8 060732000  Manzanit… SAN …  32.7 -116.     0  Active Manzani…        -8 2022…
#>  9 061000000  NA        NA     32.7 -116.     0  Active Manzani…        -8 2022…
#> 10 043201520  JPN Site… NA     32.8  131.     0  Active Japan M…         9 2022…
#> # ℹ 4,741 more rows
#> # ℹ 1 more variable: tz_local <chr>
…
