Download air quality station observations from the British Columbia (Canada) Government — get_bcgov_data • airquality
…
    Examples

# \donttest{
# For a single station
station <- "0450307" # EMS IDs - see get_bcgov_stations()
# For the years 2019 and 2020
date_range <- lubridate::ymd_h(c("2019-01-01 00", "2020-12-31 23"), tz = "Etc/GMT+8")
get_bcgov_data(station, date_range)
#> Data from the 'BCgov' repository are collected from the British Columbia Ministry of Environment and Climate Change Strategy and are NOT to be used commercially. Recent observations are not quality assured, and are intended for research and/or situational awareness (**NOT for regulatory decision making**). See `https://www2.gov.bc.ca/gov/content/environment/air-land-water/air` for more information.
#> 2025-11-15 00:01:40: Getting archived data
#> # A tibble: 17,541 × 26
#>    date_utc            date_local      site_id quality_assured pm25_1hr pm10_1hr
#>    <dttm>              <chr>           <chr>   <lgl>           [ug/m^3] [ug/m^3]
#>  1 2019-01-01 09:00:00 2019-01-01 01:… 0450307 TRUE                 2.7      9.6
#>  2 2019-01-01 10:00:00 2019-01-01 02:… 0450307 TRUE                 2.4     19.4
#>  3 2019-01-01 11:00:00 2019-01-01 03:… 0450307 TRUE                 2.6      6.9
#>  4 2019-01-01 12:00:00 2019-01-01 04:… 0450307 TRUE                 2.6      6.1
#>  5 2019-01-01 13:00:00 2019-01-01 05:… 0450307 TRUE                 2.2      6  
#>  6 2019-01-01 14:00:00 2019-01-01 06:… 0450307 TRUE                 2.1      4.8
#>  7 2019-01-01 15:00:00 2019-01-01 07:… 0450307 TRUE                 3.1      6.4
#>  8 2019-01-01 16:00:00 2019-01-01 08:… 0450307 TRUE                 4        6.1
#>  9 2019-01-01 17:00:00 2019-01-01 09:… 0450307 TRUE                 3.9      4.2
#> 10 2019-01-01 18:00:00 2019-01-01 10:… 0450307 TRUE                 3.6      6.6
#> # ℹ 17,531 more rows
#> # ℹ 20 more variables: o3_1hr [ppb], no_1hr [ppb], no2_1hr [ppb],
#> #   nox_1hr [ppb], so2_1hr [ppb], trs_1hr [ppb], rh_1hr [%], temp_1hr [°C],
#> #   wd_1hr [°], wd_unitvector_1hr [°], ws_1hr [m/s], ws_vector_1hr [m/s],
#> #   pm25_1hr_instrument <fct>, pm10_1hr_instrument <fct>,
#> #   o3_1hr_instrument <fct>, no_1hr_instrument <fct>, no2_1hr_instrument <fct>,
#> #   nox_1hr_instrument <fct>, so2_1hr_instrument <fct>, …

# For multiple stations
stations <- c("0450307", "E206898") # EMS IDs - see get_bcgov_stations()
# For first week of January 2019
date_range <- lubridate::ymd_h(c("2019-01-01 00", "2019-01-07 23"), tz = "Etc/GMT+8")
get_bcgov_data(stations, date_range)
#> Data from the 'BCgov' repository are collected from the British Columbia Ministry of Environment and Climate Change Strategy and are NOT to be used commercially. Recent observations are not quality assured, and are intended for research and/or situational awareness (**NOT for regulatory decision making**). See `https://www2.gov.bc.ca/gov/content/environment/air-land-water/air` for more information.
#> 2025-11-15 00:05:37: Getting archived data
#> # A tibble: 167 × 23
#>    date_utc            date_local      site_id quality_assured pm25_1hr pm10_1hr
#>    <dttm>              <chr>           <chr>   <lgl>           [ug/m^3] [ug/m^3]
#>  1 2019-01-01 09:00:00 2019-01-01 01:… 0450307 TRUE                 2.7      9.6
#>  2 2019-01-01 10:00:00 2019-01-01 02:… 0450307 TRUE                 2.4     19.4
#>  3 2019-01-01 11:00:00 2019-01-01 03:… 0450307 TRUE                 2.6      6.9
#>  4 2019-01-01 12:00:00 2019-01-01 04:… 0450307 TRUE                 2.6      6.1
#>  5 2019-01-01 13:00:00 2019-01-01 05:… 0450307 TRUE                 2.2      6  
#>  6 2019-01-01 14:00:00 2019-01-01 06:… 0450307 TRUE                 2.1      4.8
#>  7 2019-01-01 15:00:00 2019-01-01 07:… 0450307 TRUE                 3.1      6.4
#>  8 2019-01-01 16:00:00 2019-01-01 08:… 0450307 TRUE                 4        6.1
#>  9 2019-01-01 17:00:00 2019-01-01 09:… 0450307 TRUE                 3.9      4.2
#> 10 2019-01-01 18:00:00 2019-01-01 10:… 0450307 TRUE                 3.6      6.6
#> # ℹ 157 more rows
#> # ℹ 17 more variables: o3_1hr [ppb], no_1hr [ppb], no2_1hr [ppb],
#> #   nox_1hr [ppb], so2_1hr [ppb], trs_1hr [ppb], rh_1hr [%], temp_1hr [°C],
#> #   ws_1hr [m/s], pm25_1hr_instrument <fct>, pm10_1hr_instrument <fct>,
#> #   o3_1hr_instrument <fct>, no_1hr_instrument <fct>, no2_1hr_instrument <fct>,
#> #   nox_1hr_instrument <fct>, so2_1hr_instrument <fct>,
#> #   trs_1hr_instrument <fct>
…
